VLP Brown. Guo Example Problem 4.4
…
# Example Problem from Guo book

input.example.P44 <- setWellInput(field.name = "HAGBR.MOD",
                                    well.name = "Guo_P44", 
                                    depth.wh = 0, depth.bh = 9700, diam.in = 1.995, 
                                    GLR = 362.7, liq.rt = 758, wcut = 0.1, 
                                    thp = 100, tht = 80, bht = 180, 
                                    API = 40, gas.sg = 0.70, wat.sg = 1.05, if.tens = 30)

well.model <- setVLPmodel(vlp.model = "hagbr.mod", segments = 29, tol = 0.000001)

as.tibble(runVLP(well.input = input.example.P44, well.model))

# A tibble: 30 x 45
       i depth    dL  temp  pres p_avg t_avg segment   GOR    Rs gas.fvf
   <int> <dbl> <dbl> <dbl> <dbl> <dbl> <dbl>   <dbl> <dbl> <dbl>   <dbl>
 1     1    0     0   80    100   100   80         0  403.  35.8  0.150 
 2     2  334.  334.  83.4  138.  119.  81.7       1  403.  40.5  0.126 
 3     3  669.  334.  86.9  176.  157.  85.2       2  403.  49.6  0.0953
 4     4 1003.  334.  90.3  217.  197.  88.6       3  403.  58.6  0.0760
 5     5 1338.  334.  93.8  259.  238.  92.1       4  403.  67.7  0.0628
 6     6 1672.  334.  97.2  302.  281.  95.5       5  403.  76.9  0.0532
 7     7 2007.  334. 101.   348.  325.  99.0       6  403.  86.1  0.0459
 8     8 2341.  334. 104.   394.  371. 102.        7  403.  95.6  0.0402
 9     9 2676.  334. 108.   442.  418. 106.        8  403. 105.   0.0356
10    10 3010.  334. 111.   492.  467. 109.        9  403. 115.   0.0319
# ... with 20 more rows, and 34 more variables: gas.free <dbl>,
#   liq.dens <dbl>, z <dbl>, gas.dens <dbl>, oil.visc <dbl>,
#   wat.visc <dbl>, mixL.visc <dbl>, oil.fvf <dbl>, wat.fvf <dbl>,
#   liq.svel <dbl>, gas.svel <dbl>, NL <dbl>, CNL <dbl>, NLV <dbl>,
#   NGV <dbl>, A <dbl>, B <dbl>, BA <dbl>, ND <dbl>, X2 <dbl>,
#   HL.psi <dbl>, X2.mod <dbl>, psi <dbl>, HL <dbl>, Re.TP <dbl>,
#   ff <dbl>, mix.dens <dbl>, mixL.volume <dbl>, mixL.dens <dbl>,
#   mixTP.dens <dbl>, mixTP.svel <dbl>, elev.grad <dbl>, fric.grad <dbl>,
#   dp.dz <dbl>
…
