Wellbore heat transfer
…
# read string text to dataframe
well_table <- read.table(header = TRUE, text = well)
as.tibble(well_table)

# A tibble: 30 x 4
   depth    dL  pres  temp
   <int> <int> <int> <dbl>
 1     0     0   200  80.0
 2   334   334   267  83.4
 3   669   334   339  86.9
 4  1003   334   415  90.3
 5  1338   334   495  93.8
 6  1672   334   580  97.2
 7  2007   334   667 100.7
 8  2341   334   756 104.1
 9  2676   334   849 107.6
10  3010   334   944 111.0
# ... with 20 more rows
…
