VLP Brown Example: Oilwell-01 • rNodal
…
well_model <- setVLPmodel(vlp.model = "hagbr.mod", segments = 29, tol = 0.00001)

as.tibble(runVLP(well.input = input_example, well_model))

## Warning in get.well.slot(hFile, field.name, well.name): 
##  ./data folder does not exist. Creating a temporary file

## Warning in get.well.slot(hFile, field.name, well.name): Creating a local ./data folder is advised

## # A tibble: 30 x 45
##        i     depth       dL      temp     pres    p_avg     t_avg segment
##    <int>     <dbl>    <dbl>     <dbl>    <dbl>    <dbl>     <dbl>   <dbl>
##  1     1    0.0000   0.0000  60.00000 100.0000 100.0000  60.00000       0
##  2     2  319.8276 319.8276  65.17241 123.3668 111.6834  62.58621       1
##  3     3  639.6552 319.8276  70.34483 146.1362 134.7515  67.75862       2
##  4     4  959.4828 319.8276  75.51724 168.3186 157.2273  72.93103       3
##  5     5 1279.3103 319.8276  80.68966 190.0331 179.1758  78.10345       4
##  6     6 1599.1379 319.8276  85.86207 211.4121 200.7226  83.27586       5
##  7     7 1918.9655 319.8276  91.03448 232.5725 221.9923  88.44828       6
##  8     8 2238.7931 319.8276  96.20690 253.6108 243.0916  93.62069       7
##  9     9 2558.6207 319.8276 101.37931 274.5991 264.1042  98.79310       8
## 10    10 2878.4483 319.8276 106.55172 295.6000 285.0993 103.96552       9
## # ... with 20 more rows, and 37 more variables: GOR <dbl>, Rs <dbl>,
## #   gas.fvf <dbl>, gas.free <dbl>, liq.dens <dbl>, z <dbl>,
## #   gas.dens <dbl>, oil.visc <dbl>, wat.visc <dbl>, mixL.visc <dbl>,
## #   oil.fvf <dbl>, wat.fvf <dbl>, liq.svel <dbl>, gas.svel <dbl>,
## #   NL <dbl>, CNL <dbl>, NLV <dbl>, NGV <dbl>, A <dbl>, B <dbl>, BA <dbl>,
## #   ND <dbl>, X2 <dbl>, HL.psi <dbl>, X2.mod <dbl>, psi <dbl>, HL <dbl>,
## #   Re.TP <dbl>, ff <dbl>, mix.dens <dbl>, mixL.volume <dbl>,
## #   mixL.dens <dbl>, mixTP.dens <dbl>, mixTP.svel <dbl>, elev.grad <dbl>,
## #   fric.grad <dbl>, dp.dz <dbl>
…
