VLP Brown. Guo Example Problem 4.4 • rNodal
…
# Example Problem from Guo book

input.example.P44 <- setWellInput(field.name = "HAGBR.MOD",
                                    well.name = "Guo_P44", 
                                    depth.wh = 0, depth.bh = 9700, diam.in = 1.995, 
                                    GLR = 362.7, liq.rt = 758, wcut = 0.1, 
                                    thp = 100, tht = 80, bht = 180, 
                                    API = 40, gas.sg = 0.70, wat.sg = 1.05, if.tens = 30)

well.model <- setVLPmodel(vlp.model = "hagbr.mod", segments = 29, tol = 0.000001)

as.tibble(runVLP(well.input = input.example.P44, well.model))

# A tibble: 30 x 45
       i     depth       dL      temp     pres    p_avg     t_avg segment
   <int>     <dbl>    <dbl>     <dbl>    <dbl>    <dbl>     <dbl>   <dbl>
 1     1    0.0000   0.0000  80.00000 100.0000 100.0000  80.00000       0
 2     2  334.4828 334.4828  83.44828 137.5319 118.7659  81.72414       1
 3     3  668.9655 334.4828  86.89655 176.4601 156.9960  85.17241       2
 4     4 1003.4483 334.4828  90.34483 216.9125 196.6863  88.62069       3
 5     5 1337.9310 334.4828  93.79310 258.9087 237.9106  92.06897       4
 6     6 1672.4138 334.4828  97.24138 302.4498 280.6793  95.51724       5
 7     7 2006.8966 334.4828 100.68966 347.5405 324.9951  98.96552       6
 8     8 2341.3793 334.4828 104.13793 394.1921 370.8663 102.41379       7
 9     9 2675.8621 334.4828 107.58621 442.4224 418.3073 105.86207       8
10    10 3010.3448 334.4828 111.03448 492.2542 467.3383 109.31034       9
# ... with 20 more rows, and 37 more variables: GOR <dbl>, Rs <dbl>,
#   gas.fvf <dbl>, gas.free <dbl>, liq.dens <dbl>, z <dbl>,
#   gas.dens <dbl>, oil.visc <dbl>, wat.visc <dbl>, mixL.visc <dbl>,
#   oil.fvf <dbl>, wat.fvf <dbl>, liq.svel <dbl>, gas.svel <dbl>,
#   NL <dbl>, CNL <dbl>, NLV <dbl>, NGV <dbl>, A <dbl>, B <dbl>, BA <dbl>,
#   ND <dbl>, X2 <dbl>, HL.psi <dbl>, X2.mod <dbl>, psi <dbl>, HL <dbl>,
#   Re.TP <dbl>, ff <dbl>, mix.dens <dbl>, mixL.volume <dbl>,
#   mixL.dens <dbl>, mixTP.dens <dbl>, mixTP.svel <dbl>, elev.grad <dbl>,
#   fric.grad <dbl>, dp.dz <dbl>
…
